time,0,1,2,3,4,5,6,7,8,9,10,11,12,13,14,15,16,17,18,19,20,21,22,23
2.5,-0.100969092134,-0.0739379267988,-0.099473018906,-0.0613378900192,-0.112412074613,-0.138643616187,-0.0126132177134,0.137566178395,-0.085862199744,-0.05611485635,-0.0269685106905,-0.138643616187,-0.206388222822,-0.165360954562,-0.0709118582781,-0.0414680803856,-0.0414680803856,0.222455075981,-0.085862199744,-0.0866489785484,0.0434208172009,0.0973596243117,-0.0126132177134,-0.0613378900192
4.0,-0.0269685106905,0.0473683694233,-0.0120101776556,0.0473683694233,0.012035296311,-0.0120101776556,0.0434208172009,0.242919178541,-0.0414680803856,-0.0126132177134,0.0296150176759,-0.0866489785484,-0.099473018906,-0.112412074613,-0.0269685106905,0.0296150176759,0.00160064150631,0.34109957248,-0.0126132177134,6.26546449447e-05,0.0973596243117,0.1620653137,0.0296150176759,0.0704519825363
5.5,0.015675826718,6.26546449447e-05,-0.0364632213802,0.0239093965993,6.26546449447e-05,-0.0241848916017,0.070642285936,0.222455075981,-0.0269685106905,0.00160064150631,0.057095754098,-0.0613378900192,-0.0866489785484,-0.099473018906,0.00160064150631,0.070642285936,0.0296150176759,0.292844403873,0.0296150176759,-0.0241848916017,0.123591165885,0.174665350479,0.057095754098,0.0239093965993
7.0,0.110535013059,0.137566178395,0.0818567458086,0.137566178395,0.148454494538,0.126595060574,0.136530221592,0.350559901729,0.0296150176759,0.057095754098,0.136530221592,0.0239093965993,0.0473683694233,-0.0241848916017,0.0434208172009,0.174665350479,0.110535013059,0.433022061921,0.123591165885,0.0931720590364,0.199540019118,0.259912637098,0.123591165885,0.159261249494
8.5,0.223993062843,0.180634900287,0.148454494538,0.169987656087,0.222455075981,0.21211313176,0.236065895143,0.406055014321,0.070642285936,0.0973596243117,0.211818348897,0.115539872065,0.126595060574,0.0473683694233,0.0840628016983,0.283371609922,0.187156294662,0.485489481815,0.236065895143,0.169987656087,0.294959584197,0.329175299535,0.199540019118,0.191204141997
10.0,0.340402554958,0.232723411435,0.232723411435,0.201696515815,0.331576798362,0.321990749532,0.340402554958,0.468211490383,0.136530221592,0.1620653137,0.317859986307,0.222455075981,0.253043395815,0.137566178395,0.14935426195,0.405990896586,0.283371609922,0.560777609119,0.362598301072,0.263097060479,0.384457735036,0.448116372258,0.283371609922,0.242919178541
11.5,0.478922419039,0.292844403873,0.350559901729,0.263097060479,0.450724063655,0.441900213268,0.468726651934,0.560777609119,0.187156294662,0.236065895143,0.448116372258,0.321990749532,0.378574277899,0.253043395815,0.199540019118,0.557993990031,0.416638140785,0.624553519553,0.50908438955,0.378574277899,0.518999858415,0.528847644371,0.405990896586,0.302625424665
13.0,0.623796048426,0.273081149051,0.415100153924,0.282996617916,0.494051495319,0.485489481815,0.586563142227,0.585025155366,0.259912637098,0.294959584197,0.56758003886,0.424088937151,0.406055014321,0.312340579499,0.271689804874,0.660092177649,0.538628665164,0.655414483257,0.651103394422,0.433022061921,0.642058254819,0.605299704809,0.528847644371,0.292844403873
14.5,0.788606918172,0.441900213268,0.552603677674,0.424088937151,0.670600887072,0.655414483257,0.747027814421,0.737028248811,0.373569418893,0.416638140785,0.721492722314,0.544383170869,0.560777609119,0.459494273282,0.373569418893,0.821028395864,0.695497513781,0.800531191117,0.796780849618,0.585025155366,0.772118795384,0.772118795384,0.669025302419,0.459494273282
16.0,0.936505613284,0.527800286673,0.678134559758,0.511024573922,0.77967258622,0.77967258622,0.906604127571,0.841364908626,0.489046636313,0.538628665164,0.876069759422,0.685629096305,0.700502372786,0.585025155366,0.489046636313,1.00160064151,0.844875137819,0.906953250253,0.965799920078,0.72979667958,0.936505613284,0.906604127571,0.821028395864,0.544383170869
17.5,1.09072653198,0.47687635151,0.758507976222,0.511024573922,0.8210925136,0.834639045438,1.09072653198,0.887587925387,0.548343819997,0.605299704809,1.0434208172,0.786659016536,0.765597401008,0.655414483257,0.56758003886,1.13007519946,1.00160064151,0.932375847133,1.13653022159,0.800531191117,1.07064228594,1.01567582672,0.94388514365,0.511024573922
19.0,1.25398780314,0.640066518924,0.926062073201,0.640066518924,1.00006265464,0.994038867017,1.22399306284,1.04736836942,0.677903453766,0.721492722314,1.18715629466,0.919720546327,0.900526981094,0.800531191117,0.669025302419,1.2891772316,1.19336144419,1.09879660823,1.28337160992,0.944921100452,1.23004210752,1.19336144419,1.11053501306,0.670600887072
20.5,1.41132434089,0.722528679116,1.07045198254,0.715223878493,1.0875254959,1.08185674581,1.37356941889,1.14845449454,0.812991076799,0.844875137819,1.34598358722,1.01203529631,0.975815108398,0.900526981094,0.788606918172,1.43246310795,1.30645522303,1.18592919996,1.41663814079,1.04153929062,1.3570812961,1.32352873639,1.2118183489,0.744223750215
22.0,1.52393215396,0.814271247744,1.16463442159,0.807417576703,1.16463442159,1.16463442159,1.52393215396,1.24799016809,0.94388514365,0.980226990714,1.50908438955,1.12107805561,1.07045198254,1.01203529631,0.921632336803,1.58656314223,1.45329661136,1.28299661792,1.53374644378,1.14302060849,1.47383354237,1.41132434089,1.37356941889,0.841364908626
23.5,1.6145775184,0.887587925387,1.27308114905,0.894071958957,1.20691422509,1.23783030187,1.70421473088,1.28792891346,1.09072653198,1.14935426195,1.66902530242,1.22759837926,1.14302060849,1.10439931446,1.07736814912,1.69111907327,1.60994606967,1.3267917358,1.64205825482,1.26809774154,1.57710281298,1.49910030098,1.46360161976,0.932375847133
25.0,1.71287959201,0.932375847133,1.35995859973,0.951153054164,1.28299661792,1.30749117984,1.82902118662,1.35055990173,1.22399306284,1.2599126371,1.8129910768,1.29284440387,1.20169651581,1.15926124949,1.21791854843,1.79678084962,1.72578008072,1.35995859973,1.71719258488,1.35055990173,1.62838331792,1.52393215396,1.55317697373,0.96353677862
26.5,1.84881155238,0.975815108398,1.44631888453,1.01798456264,1.28792891346,1.28792891346,1.94020009684,1.35526690441,1.34598358722,1.40599089659,1.91413780026,1.37394282917,1.21729337087,1.21211313176,1.33479984873,1.89522933771,1.86445067616,1.3785742779,1.82503032642,1.44190021327,1.72578008072,1.56758003886,1.6465879133,1.01798456264
28.0,1.97663372599,1.10439931446,1.56890549,1.14845449454,1.39238007742,1.3785742779,2.0468517226,1.43302206192,1.47383354237,1.54349442034,2.0570957541,1.49405149532,1.30262542467,1.25807898571,1.49910030098,2.01567582672,2.01567582672,1.46821149038,1.98022699071,1.53611555489,1.8875960128,1.65560478666,1.69986270634,1.14845449454
29.5,2.02961501768,1.16998765609,1.62844743566,1.23272341144,1.41510015392,1.44190021327,2.09404689027,1.44190021327,1.59596184023,1.66902530242,2.10066476904,1.54849927934,1.35995859973,1.34109957248,1.62379604843,2.02614282577,2.0434208172,1.48977684022,2.02266225703,1.62455351955,1.97303148931,1.72149272231,1.75124006571,1.20691422509
31.0,2.0468517226,1.15926124949,1.6856290963,1.20691422509,1.42408893715,1.42856241373,2.12033818809,1.42856241373,1.66902530242,1.76380352717,2.12033818809,1.63620387929,1.34583749149,1.41510015392,1.68232212503,2.0570957541,2.0840628017,1.45072406365,2.03653443162,1.68936181518,1.94756080179,1.72578008072,1.80085051393,1.191204142
32.5,2.16837908763,1.24291917854,1.76912909198,1.33157679836,1.51102457392,1.5236246107,2.22095900275,1.50256299517,1.8566523056,1.94020009684,2.2390683833,1.70788190315,1.39238007742,1.45072406365,1.86833411064,2.15254253958,2.20875854915,1.55260367767,2.17466535048,1.73702824881,2.05368915265,1.78860691817,1.82902118662,1.29284440387
34.0,2.22095900275,1.29284440387,1.82449109006,1.38319090597,1.56890549,1.56077760912,2.23606589514,1.52780028667,1.9548841426,2.03653443162,2.28337160992,1.76912909198,1.45949427328,1.48118934438,1.90660412757,2.16837908763,2.2118183489,1.58101209286,2.18715629466,1.77616664272,2.13330632072,1.81701533336,1.80895556356,1.34109957248
35.5,2.22095900275,1.3267917358,1.85139527376,1.38779280793,1.5769878363,1.55260367767,2.24206463576,1.50256299517,1.95122711899,2.00160064151,2.2390683833,1.80053119112,1.43302206192,1.5236246107,1.87992208492,2.15889803462,2.2056922461,1.55669643231,2.15889803462,1.8074175767,2.10725242907,1.83300103753,1.8049087305,1.36463508694
37.0,2.22399306284,1.41510015392,1.86466152854,1.44631888453,1.6206490651,1.63620387929,2.2862773411,1.58502515537,2.11053501306,2.11053501306,2.2804600145,1.84136490863,1.47255042611,1.5769878363,1.99095339731,2.2056922461,2.25695326162,1.64006651892,2.21487167287,1.83463904544,2.19645403924,1.95122711899,1.87220711979,1.4105846728
38.5,2.25695326162,1.38319090597,1.96045079875,1.45511583277,1.6206490651,1.61280831188,2.2891772316,1.58101209286,2.11707785893,2.11707785893,2.2891772316,1.94179499947,1.47687635151,1.64391884442,2.07064228594,2.22399306284,2.27168980487,1.59699779703,2.21791854843,1.9260620732,2.2118183489,1.89522933771,1.83300103753,1.40605501432
40.0,2.27461913591,1.43302206192,1.97886843238,1.51523682521,1.65541448326,1.61280831188,2.2949595842,1.63620387929,2.14295649075,2.15572378683,2.2891772316,1.93866210998,1.48548948182,1.66302766737,2.09735962431,2.23606589514,2.28337160992,1.64006651892,2.22399306284,1.93237584713,2.22399306284,1.91788993512,1.87220711979,1.45949427328
41.5,2.30071885349,1.43302206192,2.01203529631,1.53611555489,1.66681924653,1.59301794612,2.30358988934,1.65541448326,2.16522565459,2.18715629466,2.31216887423,1.9480404423,1.49405149532,1.67813455976,2.11707785893,2.24803853681,2.30645522303,1.65159277231,2.24803853681,1.96045079875,2.26286595449,1.89522933771,1.86833411064,1.47255042611
43.0,2.31216887423,1.43302206192,2.02980999804,1.55669643231,1.67437264096,1.57295232307,2.33760392161,1.68188669462,2.17779823996,2.22702075554,2.30645522303,1.9696890056,1.49831352217,1.70050237279,2.13653022159,2.2599126371,2.31501723654,1.68188669462,2.2862773411,1.99403886702,2.27461913591,1.89522933771,1.8566523056,1.51102457392
44.5,2.30358988934,1.48548948182,2.01798456264,1.59699779703,1.69308490122,1.56890549,2.32352873639,1.70050237279,2.1840436828,2.22095900275,2.29784209273,1.92922241409,1.48548948182,1.69308490122,2.15889803462,2.2599126371,2.2949595842,1.69308490122,2.27461913591,1.98495576225,2.2804600145,1.90282248703,1.78860691817,1.54025528525
46.0,2.35984243578,1.51943681374,2.0502741006,1.6206490651,1.72979667958,1.63233087014,2.37629921165,1.71522387849,2.21791854843,2.24206463576,2.34876602789,1.9480404423,1.56077760912,1.74063048549,2.19645403924,2.29207130487,2.32352873639,1.7188809021,2.30358988934,2.00306514281,2.30071885349,1.89522933771,1.8409279533,1.59301794612
47.5,2.35154311256,1.47255042611,2.03568656438,1.58902708592,1.67437264096,1.5769878363,2.32352873639,1.68188669462,2.22702075554,2.26581323854,2.30071885349,1.91335102145,1.48977684022,1.6856290963,2.23606589514,2.2891772316,2.31216887423,1.7188809021,2.30071885349,2.00606139527,2.31501723654,1.91037588146,1.83300103753,1.61280831188
