time,0,1,2,3,4,5,6,7,8,9,10,11,12,13,14,15,16,17,18,19,20,21,22,23
2.5,0.0928006729094,-0.0143718501871,-0.023713335817,0.0278563852022,-0.0102928200547,-0.0726704907518,0.029235544132,-0.0927549802466,-0.0786797950349,-0.0287271431642,-0.0578734888237,-0.000157990967392,-0.0372598676549,-0.0578734888237,0.0553371216243,-0.0372598676549,0.029235544132,0.0139171942443,0.00300400255879,-0.0143718501871,-0.023713335817,-0.0432267128593,-0.0287271431642,-0.050934804552
4.0,0.14171027339,-0.000157990967392,0.00300400255879,0.0553371216243,0.029235544132,-0.0287271431642,0.0421745998395,-0.064740604077,-0.0372598676549,-0.0143718501871,-0.0287271431642,0.0416621847272,-0.0102928200547,-0.0287271431642,0.095600991838,0.00300400255879,0.0421745998395,0.0553371216243,0.0421745998395,0.0278563852022,-0.0102928200547,-0.000157990967392,0.0139171942443,0.00300400255879
5.5,0.189015988169,0.0553371216243,0.029235544132,0.095600991838,0.0803097287262,0.0139171942443,0.0803097287262,-0.0372598676549,0.0161793913065,0.0278563852022,0.0139171942443,0.0823041692246,0.0161793913065,0.0278563852022,0.147595629476,0.0421745998395,0.0803097287262,0.095600991838,0.0803097287262,0.0823041692246,0.0161793913065,0.0688836534623,0.0688836534623,0.0421745998395
7.0,0.246046933205,0.095600991838,0.0677096919466,0.147595629476,0.14171027339,0.0553371216243,0.105184397365,0.00300400255879,0.0803097287262,0.0688836534623,0.0553371216243,0.147595629476,0.0549986401971,0.0688836534623,0.210059716423,0.0928006729094,0.117462727144,0.172906718005,0.14171027339,0.160306681226,0.0677096919466,0.134771589119,0.134771589119,0.0803097287262
8.5,0.311635274833,0.172906718005,0.14171027339,0.222234430369,0.234819677782,0.134771589119,0.177334183121,0.0549986401971,0.14171027339,0.147595629476,0.147595629476,0.258154004624,0.117462727144,0.147595629476,0.304696590561,0.177334183121,0.189015988169,0.2699311724,0.234819677782,0.246279904336,0.117462727144,0.222234430369,0.222234430369,0.189015988169
10.0,0.473224417107,0.258154004624,0.234819677782,0.327416667061,0.322282519032,0.23430726267,0.268242679319,0.14171027339,0.246046933205,0.246279904336,0.23430726267,0.382699102562,0.212099601282,0.258154004624,0.477163786566,0.290102113283,0.30090886824,0.414879508311,0.332851760742,0.34978448009,0.234819677782,0.338643922484,0.327416667061,0.27921379714
11.5,0.538600425959,0.393505857519,0.364102694727,0.477163786566,0.414728767797,0.382699102562,0.332851760742,0.25718749081,0.322282519032,0.37181078642,0.382699102562,0.53687003269,0.290102113283,0.414879508311,0.584804509754,0.353760750505,0.374371030181,0.565821406386,0.414728767797,0.53687003269,0.311635274833,0.507325757076,0.527089011897,0.404744679224
13.0,0.583547832013,0.527089011897,0.453988198244,0.603541072335,0.501606218477,0.556235357557,0.404744679224,0.332851760742,0.353760750505,0.48728800384,0.53687003269,0.693738881307,0.374371030181,0.507325757076,0.71973408984,0.463638368278,0.434492022618,0.711120959535,0.574669680666,0.667266669946,0.34334413456,0.667266669946,0.711120959535,0.473224417107
14.5,0.64421061392,0.702456098408,0.547702633066,0.753681421763,0.565736555896,0.745269181947,0.492207520475,0.453988198244,0.414728767797,0.631197415238,0.71973408984,0.850978623118,0.473224417107,0.753681421763,0.83521130726,0.538600425959,0.501606218477,0.866575478169,0.609859109129,0.827262554144,0.404744679224,0.778627778893,0.803150098028,0.565736555896
16.0,0.635699114064,0.843116505345,0.618523970256,0.866575478169,0.652672192668,0.858798127577,0.627137100561,0.529440426673,0.444273043411,0.71973408984,0.850978623118,1.0278563852,0.538600425959,0.858798127577,0.971272856836,0.627137100561,0.538600425959,1.02090362456,0.661084432484,0.912379167782,0.424644236662,0.904845495097,0.912379167782,0.635699114064
17.5,0.718635455046,0.97846835824,0.609859109129,1.04166218473,0.750519516066,0.992752584246,0.635699114064,0.583547832013,0.510944083056,0.858798127577,0.949468486517,1.17290671801,0.5923716824,0.992752584246,1.15396515435,0.686030789614,0.601141892028,1.21005971642,0.758381633839,1.04166218473,0.501606218477,1.00689676657,1.04851585577,0.652672192668
19.0,0.686030789614,1.10220372666,0.661084432484,1.17916570848,0.789408529459,1.10220372666,0.627137100561,0.5923716824,0.538600425959,1.01391719424,1.08896789951,1.32177010392,0.5923716824,1.10877638059,1.24030600329,0.694251296419,0.627137100561,1.31610135383,0.77397848889,1.16662045516,0.510944083056,1.13477158912,1.12183253341,0.669447905419
20.5,0.726672774112,1.25815400462,0.734665564865,1.31041024176,0.878675867557,1.25222917067,0.750519516066,0.669447905419,0.601141892028,1.14759562948,1.24627990434,1.48223477611,0.710553108748,1.25815400462,1.36633565635,0.819782178503,0.710553108748,1.44115883311,0.885871368961,1.30469659056,0.574669680666,1.28161297745,1.26405460606,0.758381633839
22.0,0.781714137669,1.40423226411,0.758381633839,1.42017380798,1.00300400256,1.45153797889,0.766201138298,0.726672774112,0.64421061392,1.25815400462,1.39887902962,1.58480450975,0.758381633839,1.44635773978,1.50732575708,0.878675867557,0.789408529459,1.55141834126,0.962740132345,1.42544875002,0.627137100561,1.39887902962,1.41487950831,0.77397848889
23.5,0.914299777287,1.58951151243,0.834732519969,1.53198781131,1.20636323173,1.67171257498,0.885871368961,0.781714137669,0.734665564865,1.32741666706,1.64029962235,1.71112095954,0.849529521897,1.65384615418,1.55141834126,1.00960673738,0.900155594967,1.71543395241,1.13568648576,1.58480450975,0.742614317981,1.55623535756,1.59887969497,0.856871497238
25.0,0.949065195448,1.7368076032,0.885871368961,1.64482928083,1.21781325248,1.79094104033,0.955918866489,0.789408529459,0.789408529459,1.36633565635,1.7368076032,1.79502221714,0.914299777287,1.7368076032,1.59887969497,1.0865687192,0.983012527371,1.7620448947,1.22917311464,1.67171257498,0.812248505818,1.61281888592,1.70245609841,0.878675867557
26.5,1.01617939131,1.82726255414,0.921320204965,1.68056349256,1.36410269473,1.83521130726,1.02923554413,0.871444298326,0.849529521897,1.45669968401,1.82726255414,1.83124240506,0.989707179945,1.86657547817,1.61281888592,1.17145761678,1.06136816507,1.83916932083,1.32228251903,1.75786921873,0.871444298326,1.69373888131,1.77036016291,0.935259395923
28.0,1.06136816507,1.90106385455,0.996370910226,1.75368142176,1.4295765322,1.92732950925,1.10518439737,0.949065195448,0.885871368961,1.45669968401,1.92360642321,1.93474698081,1.06770969195,1.9640412876,1.65833354518,1.26272567435,1.14171027339,1.95677328714,1.33810748619,1.81525670088,0.935259395923,1.79909188145,1.83916932083,1.01617939131
29.5,1.00960673738,1.84311650535,1.11133662435,1.78274388737,1.54770263307,2.01391719424,1.15963218139,0.996370910226,0.871444298326,1.51229200997,1.97846835824,1.91237916778,1.13568648576,2.04851585577,1.6357556972,1.38456679729,1.17145761678,1.9640412876,1.54770263307,1.8470529199,0.949065195448,1.77449989327,1.85097862312,1.0549986402
31.0,1.11746272714,1.9640412876,1.22350436455,1.80719693109,1.61852397026,2.06550892668,1.23481967778,1.0357195777,0.893031160534,1.5270890119,2.04509309013,1.98562814981,1.19482160985,2.07560951665,1.72402144824,1.45882135198,1.24604693321,2.04166218473,1.49220752047,1.94212651118,1.02272223717,1.84311650535,1.91237916778,1.06136816507
32.5,1.01617939131,1.9604118642,1.22350436455,1.85489367312,1.63996114092,2.13477158912,1.29551560947,1.14770901401,0.849529521897,1.58480450975,2.06888365346,2.01041125074,1.29551560947,2.09890613656,1.70245609841,1.57021003248,1.24044422698,2.07896072615,1.64421061392,1.94580216932,0.996370910226,1.90106385455,1.92732950925,1.048600869
34.0,1.02272223717,1.94580216932,1.15963218139,1.88965909128,1.67776317363,2.09890613656,1.23481967778,1.14171027339,0.819782178503,1.59887969497,2.09560099184,2.04166218473,1.22350436455,2.07560951665,1.72402144824,1.60550708459,1.22917311464,2.11857955562,1.54770263307,1.97127285684,0.983012527371,1.95312551013,1.94580216932,1.0549986402
35.5,1.12963744109,1.95312551013,1.11133662435,1.91613130264,1.79324039105,2.07896072615,1.24044422698,1.11746272714,0.842149991531,1.62662468545,2.1379883018,2.09560099184,1.15963218139,2.0922882578,1.75368142176,1.65688444395,1.24604693321,2.16030668123,1.64421061392,2.0033737,0.996370910226,2.02090362456,2.01041125074,0.969529298008
37.0,1.00300400256,1.93104301205,1.0549986402,1.94212651118,1.83473251997,2.03132024051,1.19482160985,1.0357195777,0.781714137669,1.59887969497,2.10877638059,2.10877638059,1.17733418312,2.03477579914,1.75786921873,1.66527222945,1.18901598817,2.15396515435,1.8197821785,2.01741463848,0.935259395923,2.0278563852,1.98562814981,0.935259395923
38.5,0.996370910226,1.92360642321,1.0357195777,1.97846835824,1.69425129642,2.03132024051,1.15963218139,0.989707179945,0.77397848889,1.64029962235,2.10877638059,2.11531922645,1.12356292668,2.03477579914,1.75368142176,1.60985910913,1.17145761678,2.15078390711,1.64421061392,2.05533712162,0.921320204965,2.03822310076,2.00689676657,0.969529298008
40.0,0.969529298008,2.0033737,1.06136816507,2.08230416922,1.62283696313,2.07560951665,1.14171027339,0.989707179945,0.750519516066,1.61281888592,2.1379883018,2.18228505032,1.12963744109,2.05533712162,1.74526918195,1.57021003248,1.14171027339,2.17290671801,1.5923716824,2.14119785828,0.914299777287,2.11531922645,2.03822310076,0.983012527371
41.5,0.962740132345,1.93104301205,0.989707179945,1.99984200903,1.69425129642,2.07896072615,1.14770901401,0.969529298008,0.734665564865,1.63119741524,2.1054937966,2.21005971642,1.09280067291,2.03822310076,1.77862777889,1.52944042667,1.12963744109,2.19160281172,1.53402769617,2.08896789951,0.900155594967,2.0922882578,2.03477579914,0.928306635281
43.0,1.0549986402,1.9604118642,0.976286664183,2.01041125074,1.60550708459,2.15713940215,1.15368291506,0.962740132345,0.781714137669,1.74526918195,2.13477158912,2.24030600329,1.10518439737,2.08563988179,1.84311650535,1.52483852471,1.15963218139,2.23430726267,1.49691452315,2.08896789951,0.955918866489,2.11857955562,2.07896072615,0.955918866489
44.5,1.06136816507,1.9640412876,0.962740132345,2.00689676657,1.57021003248,2.14119785828,1.14171027339,0.949065195448,0.758381633839,1.68056349256,2.1379883018,2.25815400462,1.0865687192,2.09560099184,1.82726255414,1.49220752047,1.14770901401,2.23730975083,1.46363836828,2.11857955562,0.928306635281,2.11531922645,2.13154768824,0.935259395923
46.0,0.955918866489,1.95312551013,0.921320204965,2.01741463848,1.50628270569,2.12831656698,1.0865687192,0.907245019753,0.686030789614,1.69373888131,2.14440029032,2.28161297745,1.0549986402,2.0922882578,1.79094104033,1.44913879858,1.08030972873,2.2312985128,1.4147287678,2.11205151262,0.856871497238,2.15078390711,2.09890613656,0.893031160534
47.5,0.942178809863,2.00689676657,0.949065195448,2.0278563852,1.46843935454,2.20086077958,1.06770969195,0.921320204965,0.694251296419,1.6357556972,2.23430726267,2.33304121625,1.01617939131,2.18539766219,1.82327169395,1.43449202262,1.06136816507,2.3075562447,1.37947792061,2.12183253341,0.834732519969,2.17916570848,2.18228505032,0.878675867557
