,plate,number,M NaCl,Strain,mM PQ
0,20161107_PQ_osmo_combo,10,4.2,ura3,0.0
1,20161107_PQ_osmo_combo,159,4.2,ura3,0.333
2,20161107_PQ_osmo_combo,158,4.2,ura3,0.333
3,20161107_PQ_osmo_combo,12,4.2,ura3,0.0
4,20161107_PQ_osmo_combo,4,4.2,ura3,0.0
5,20161107_PQ_osmo_combo,156,4.2,ura3,0.333
6,20161107_PQ_osmo_combo,160,4.2,ura3,0.333
7,20161107_PQ_osmo_combo,161,4.2,ura3,0.333
8,20161107_PQ_osmo_combo,152,4.2,ura3,0.333
9,20161107_PQ_osmo_combo,151,4.2,ura3,0.333
10,20161107_PQ_osmo_combo,153,4.2,ura3,0.333
11,20161107_PQ_osmo_combo,155,4.2,ura3,0.333
12,20161107_PQ_osmo_combo,154,4.2,ura3,0.333
13,20161107_PQ_osmo_combo,3,4.2,ura3,0.0
14,20161107_PQ_osmo_combo,5,4.2,ura3,0.0
15,20161107_PQ_osmo_combo,11,4.2,ura3,0.0
16,20161107_PQ_osmo_combo,2,4.2,ura3,0.0
17,20161107_PQ_osmo_combo,1,4.2,ura3,0.0
18,20161107_PQ_osmo_combo,150,4.2,ura3,0.333
19,20161107_PQ_osmo_combo,7,4.2,ura3,0.0
20,20161107_PQ_osmo_combo,157,4.2,ura3,0.333
21,20161107_PQ_osmo_combo,6,4.2,ura3,0.0
22,20161107_PQ_osmo_combo,13,4.2,ura3,0.0
23,20161107_PQ_osmo_combo,8,4.2,ura3,0.0
