time,0,1,2,3,4,5,6,7,8,9,10,11
2.5,-0.00596820243598,-0.105503875987,-0.0337131929189,-0.00596820243598,-0.0477883781306,-0.0477883781306,0.0077067344611,-0.0477883781306,-0.0477883781306,-0.0620022373503,-0.0477883781306,-0.0337131929189
4.0,0.0346737820614,-0.0477883781306,0.0077067344611,0.0479706046748,0.0077067344611,0.0077067344611,0.0611459934226,0.0077067344611,0.0077067344611,-0.00596820243598,0.0077067344611,0.0346737820614
5.5,0.150150999481,0.0611459934226,0.112676294063,0.174604043206,0.112676294063,0.0871412019555,0.174604043206,0.0999652423131,0.0999652423131,0.0999652423131,0.112676294063,0.137767275025
7.0,0.257066203398,0.186676875506,0.233982590285,0.302154092926,0.257066203398,0.186676875506,0.324180399256,0.222300785237,0.233982590285,0.222300785237,0.233982590285,0.26847096667
8.5,0.398727352621,0.313209281435,0.398727352621,0.439657616676,0.398727352621,0.313209281435,0.479458624734,0.345875470356,0.345875470356,0.356601876949,0.367249121148,0.409069296843
10.0,0.508604970394,0.469610838778,0.592669235182,0.610703158013,0.583567028075,0.429533399403,0.646108494144,0.49895480036,0.508604970394,0.49895480036,0.527713793341,0.619636282783
11.5,0.697638794784,0.663490572372,0.739217898535,0.779632166981,0.763602057162,0.592669235182,0.787580920097,0.672103702677,0.68066571618,0.68066571618,0.739217898535,0.771639376228
13.0,0.834375131576,0.857215107934,0.909142899978,0.901838099354,0.923642469673,0.771639376228,0.916410900442,0.864748780619,0.842028704119,0.849641888229,0.887116593648,0.916410900442
14.5,0.945122197083,0.973273237397,0.994031797564,1.06114599342,1.04133751234,0.909142899978,1.09356747111,0.980225998039,0.980225998039,1.01449590012,1.0212532663,1.06114599342
16.0,1.15015099948,1.15630322646,1.14397242455,1.28541082909,1.22815351148,1.04797060467,1.30769227647,1.16242932926,1.2045987835,1.13776727503,1.22815351148,1.29659456758
17.5,1.26277985459,1.34048221159,1.29659456758,1.51819101922,1.44971128134,1.15015099948,1.53717412259,1.3350687154,1.39352844595,1.2797862799,1.40390759173,1.5037879541
19.0,1.39352844595,1.51340595666,1.46961083878,1.71857813248,1.64610849414,1.23398259028,1.73921789854,1.47945862473,1.64173005363,1.37781836286,1.67639106108,1.73921789854
20.5,1.47454313432,1.62851443413,1.62851443413,1.75956654393,1.74331065317,1.37781836286,1.79153893367,1.60621576702,1.71857813248,1.52771379334,1.73099739173,1.79942253274
22.0,1.5037879541,1.77963216698,1.75956654393,1.94512219708,1.84964188823,1.42444452273,1.9592663794,1.7875809201,1.87969912209,1.62851443413,1.91641090044,1.9732732374
23.5,1.49895480036,1.85343346739,1.86098686182,1.96628680708,1.91641090044,1.51819101922,1.9732732374,1.90183809935,1.93442230843,1.71857813248,2.00770673446,2.03467378206
25.0,1.52771379334,1.93442230843,1.96978425132,2.06442112546,2.01449590012,1.56055705003,2.05786340943,1.96978425132,2.00770673446,1.79548611818,2.0512757494,2.12213662331
26.5,1.53717412259,1.94156437767,1.99746270296,2.07744780575,2.0246201174,1.58812531004,2.07420214625,2.0212532663,2.0545733395,1.82668073979,2.11267629406,2.13465466316
28.0,1.56980512683,2.00088546861,2.0545733395,2.15323039241,2.10315351994,1.62408218781,2.13776727503,2.07420214625,2.14397242455,1.87224331717,2.13465466316,2.2045987835
29.5,1.57440702879,2.04465787063,2.08714120196,2.15630322646,2.08391730108,1.68066571618,2.14706501961,2.09996524231,2.14397242455,1.9592663794,2.15015099948,2.19566565873
31.0,1.58356702808,2.08714120196,2.11899006799,2.19566565873,2.15323039241,1.71441450753,2.18065308788,2.13153532131,2.17156998312,2.03133033899,2.17156998312,2.23107099486
32.5,1.65916464697,2.12840922033,2.1685295288,2.23688832146,2.2164242189,1.73099739173,2.23398259028,2.15015099948,2.18667687551,2.02797912949,2.20162721697,2.27130812597
34.0,1.66349057237,2.18967936367,2.21347693485,2.28821490197,2.25992585754,1.71023883156,2.27413971676,2.24557056456,2.23688832146,2.09996524231,2.27413971676,2.3350687154
35.5,1.67210370268,2.17156998312,2.18065308788,2.26277985459,2.24557056456,1.79548611818,2.26277985459,2.23107099486,2.23688832146,2.07744780575,2.2797862799,2.3323543307
37.0,1.68917721604,2.17156998312,2.19566565873,2.24845307309,2.26277985459,1.79153893367,2.2542008697,2.24268228524,2.23107099486,2.08068617982,2.2826012955,2.33777800266
38.5,1.69341420892,2.23978821197,2.24268228524,2.2570662034,2.34048221159,1.76360205716,2.28821490197,2.28821490197,2.2570662034,2.11267629406,2.3323543307,2.37781836286
40.0,1.71857813248,2.15323039241,2.21052361746,2.2045987835,2.27130812597,1.77963216698,2.2164242189,2.2164242189,2.17156998312,2.06768883929,2.26847096667,2.32418039926
41.5,1.69341420892,2.21347693485,2.23398259028,2.22230078524,2.31320928144,1.81116774041,2.24557056456,2.28821490197,2.23107099486,2.09356747111,2.34048221159,2.37518330269
43.0,1.71441450753,2.22230078524,2.22815351148,2.22230078524,2.31320928144,1.7875809201,2.24845307309,2.27696576084,2.23107099486,2.09035791464,2.33777800266,2.37254342082
44.5,1.77963216698,2.23978821197,2.2570662034,2.24845307309,2.35660187695,1.75146149429,2.2826012955,2.30492584218,2.24845307309,2.10633476719,2.34856455788,2.39613024114
46.0,1.71023883156,2.2797862799,2.28821490197,2.2826012955,2.39872735262,1.79153893367,2.3350687154,2.3323543307,2.2797862799,2.13776727503,2.39352844595,2.43713321526
47.5,1.71023883156,2.32144543154,2.31870526919,2.27413971676,2.43713321526,1.76360205716,2.33777800266,2.35660187695,2.30492584218,2.13776727503,2.43713321526,2.46466162281
